{
    "amplicon":"/mnt/BI3/Team_workdir/sandyteng_workdir/PseudoGene_pipeline/data/PA031_amplicon_v20210909-19.read.fasta",
    "publish_dir":"/mnt/BI3/Team_workdir/sandyteng_workdir/PseudoGene_pipeline_results/PA031/",
    "refgenome":"/mnt/BI3/Team_workdir/sandyteng_workdir/PseudoGene_pipeline/refgenome/hg19.fasta",
    "pycode_list":"/mnt/BI3/Team_workdir/sandyteng_workdir/PseudoGene_pipeline/python_code/extract_single_hits_from_infofiles.py",
    "pycode_info":"/mnt/BI3/Team_workdir/sandyteng_workdir/PseudoGene_pipeline/python_code/blat_info_arg.py",
    "pycode_union":"/mnt/BI3/Team_workdir/sandyteng_workdir/PseudoGene_pipeline/python_code/extract_ids_from_pseudolists.py",
    "pycode_all":"/mnt/BI3/Team_workdir/sandyteng_workdir/PseudoGene_pipeline/python_code/extract_all_hits_from_infofiles.py",
    "pycode_summary":"/mnt/BI3/Team_workdir/sandyteng_workdir/PseudoGene_pipeline/python_code/blat_keyinfo_positions_arg.py",
    "pycode_pseudolist":"/mnt/BI3/Team_workdir/sandyteng_workdir/PseudoGene_pipeline/python_code/blastn_stage2_pseudogenelist_arg.py",
    "dbasestr":"hg19"
}